604178 721891 509
419637 272174 449
325472 492044 449
369716 311423 441
166554 484409 449
495673 20877 449
269776 568540 470
825605 997657 525
67514 720361 509
948099 596251 525
281686 192443 443
456728 652877 509
60407 64340 335
164848 32599 383
269015 746988 509
296370 295018 358
720624 679509 504
697680 466292 509
595960 697136 509
152345 45429 375
512785 497170 470
612181 164568 470
603497 509379 470
450506 81767 449
190129 613624 470
98031 791486 509
34138 302967 443
947958 621207 525
686798 687723 398
490687 272946 449
781357 938368 525
980516 869399 507
721175 774682 468
312274 196114 443
798215 208098 509
804495 546478 509
930542 524791 525
158997 467261 449
407774 356323 436
826646 175148 509
230231 142402 386
589253 863474 525
572374 166860 470
970589 290830 525
405859 863887 525
724495 528325 509
936513 55826 525
282280 939398 525
957401 793711 525
411810 361028 449
450100 43740 449
119146 484762 449
671153 447801 509
366759 719713 509
668281 971730 525
491040 592556 470
161025 485137 449
969227 677647 525
389221 354008 436
272059 561311 470
475161 651752 509
831550 324789 509
670782 502658 509
852764 776835 525
77026 899286 525
110110 489383 449
864294 753307 525
548986 541403 452
176945 560523 470
728862 773837 468
445259 26694 449
742272 107569 509
270582 305487 389
338402 566041 470
219614 962756 525
714110 672523 504
755994 388047 509
799772 65027 509
45230 140895 354
259057 538580 470
12521 908161 525
49304 254107 443
93877 121015 354
162515 197093 365
553619 66377 470
883412 557321 525
622683 160296 470
792585 520712 509
117673 321356 443
14934 77274 351
89252 242389 443
49005 84975 351
305651 536149 470
324202 379444 441
823212 913421 525
260653 564333 470
901819 298281 525
295572 719412 509
808136 582584 509
211687 991228 525
259057 504206 449
100772 458370 449
63799 434722 449
431344 907212 525
269155 913569 525
805115 161200 509
483326 954335 525
175981 231033 443
524745 226287 470
259230 704865 509
336185 449440 449
608365 513464 452
211720 710024 509
772484 287728 509
958665 524528 525
692980 746825 504
541729 333226 470
165542 214814 373
502579 354013 449
533761 690746 509
718445 904037 525
75198 985428 525
910186 165729 525
664054 990189 525
81679 782511 509
969454 574521 525
91161 6348 351
447723 164249 449
672031 626888 442
341890 484807 449
20613 527780 470
256753 845822 525
160542 872051 525
130487 333763 443
137082 354361 443
669368 8240 509
352182 943793 525
182545 12515 383
981685 194711 525
29464 1007 308
226721 954573 525
934070 568388 525
242458 908705 525
746753 374713 509
898109 908065 445
389243 762891 509
339376 435305 449
581839 426880 470
972176 559261 525
465315 617169 470
766818 183470 509
262362 775331 509
560030 672647 509
816850 780888 468
245975 758335 509
38410 925204 525
350873 305108 441
918719 848593 476
837186 416499 509
590731 284467 470
976255 726843 525
501506 399041 449
157513 787645 509
249190 525740 470
656743 654009 385
911020 972932 507
708687 177088 509
131046 401688 443
443675 711728 509
155134 212950 383
178853 505493 449
128866 799910 509
297052 133837 443
336154 626035 470
493942 243166 449
397386 785563 509
820996 747122 468
526531 807759 509
553153 288493 470
583059 335138 470
361886 704839 509
810 875971 525
483389 842584 525
134086 454594 449
308541 138700 443
112562 343517 443
872546 757227 525
221927 249003 443
695391 16414 509
73730 885451 525
902563 6402 525
605355 133083 470
654351 908790 525
702644 61190 509
527541 10214 470
297826 524972 470
461056 32039 449
458925 236131 449
43936 332367 443
824965 481712 509
29122 847928 525
5292 866136 525
975374 576775 525
948721 197214 525
571902 177103 470
66563 349325 443
682728 913138 525
568756 206522 470
726100 682435 504
170003 99776 383
892947 915373 476
115858 542072 470
273646 196771 443
201267 133455 383
858045 996314 507
664681 356655 509
934754 556610 525
145064 561999 470
484269 590924 470
54844 969658 525
939037 482271 525
113704 589188 470
295347 981916 525
955025 499121 525
445955 175695 449
917718 696118 525
252031 967389 525
201185 427604 449
954771 172621 525
491193 814952 509
709962 426326 509
480540 804606 509
588579 624889 447
966346 175359 525
324732 828452 509
594319 761237 509
941178 293570 525
421521 786156 509
421804 467963 444
909180 595222 525
121470 496435 449
976098 176625 525
490214 289231 449
171574 280817 443
668049 74648 509
56519 263075 443
6970 634590 509
746387 71224 509
867877 544087 525
617568 771591 509
194435 287306 443
490058 221005 449
225159 244849 443
941450 781397 525
738455 229092 509
165192 532127 470
636805 908485 525
492128 558682 470
443814 712244 509
187077 424009 449
269439 718537 509
570436 120032 470
442957 90993 449
236646 517955 470
226669 149805 386
