198575 972504
705205 296449
290708 106030
185533 617965
191881 820068
629815 361038
123860 410086
630176 235074
19312 861603
788229 252857
472341 141701
845909 280194
245778 651886
988757 611968
887399 370420
283567 177930
323263 124473
731531 995384
443702 932996
371693 474148
2703 184160
321121 240522
492331 165732
988838 875154
942740 601981
717191 224480
696356 396390
816676 926077
538055 435620
518337 208989
985254 902530
656855 147653
111494 411310
61400 842330
157285 356842
186424 160823
949128 758013
410063 526255
987856 1762
490304 34081
689702 993519
262754 220440
23341 406218
380079 911348
197061 644779
127050 8084
116809 664763
316277 82616
827636 886804
678785 479430
638544 341801
270986 659702
799112 410009
155813 82931
273921 152749
884108 247108
925168 20292
540273 633668
106372 329024
699767 957942
310351 501505
728147 314592
241639 366572
163802 307742
957084 599874
775519 788354
80552 767327
942613 573533
998465 174495
733295 96036
84419 485255
402525 886192
18366 264602
940235 77679
367408 843756
113322 573912
261965 59067
849323 747091
925588 827495
904151 917175
962598 171913
781306 240446
324197 603333
75380 203587
148280 811380
545543 244650
2161 756415
397300 453576
243670 950815
630395 315096
819249 343362
462297 453296
891796 150746
715531 592679
543700 845750
753925 788053
758174 61683
118109 829143
580407 871486
167574 12220
400000 703167
844220 936405
79654 862730
599073 677295
570689 778011
712571 766068
605756 199249
236598 746782
448845 383002
30436 593489
864596 603054
42277 265163
159428 437967
517355 921192
727151 369601
378285 727421
842689 748578
706011 22611
237132 890430
536483 207960
993358 631288
795478 449008
923624 400888
697337 285967
118974 930293
374979 322910
196225 421239
637501 205128
128625 923600
730177 397416
181589 46217
952018 285295
916310 295612
757303 168591
371254 333047
311913 745478
533500 253676
687078 775698
296432 571798
537403 886576
826721 90516
602233 670920
578971 47433
396977 340796
79710 751990
506091 528095
880502 127954
624933 386455
474734 336882
220757 517478
475679 487766
335089 764921
471980 874475
120451 578032
507043 851367
106865 333169
381350 117748
894808 446339
345255 84422
632917 118419
904224 551453
510174 803805
608316 580526
835204 803317
774645 121204
722725 979818
570806 781891
616646 67897
808521 113379
45280 143001
293683 444147
724366 95048
310302 297031
192288 198470
166986 660785
386122 188196
776348 232024
111592 632302
787437 164906
240510 890772
591363 766419
118810 864379
750769 272277
121874 589766
264958 326940
24167 39765
805923 965098
70527 98774
910445 498974
224569 964208
279613 837550
11083 859550
230808 307616
674742 54197
80449 608119
35247 31574
206919 846451
106963 185912
148076 153025
804781 423673
517897 349499
641978 205110
586814 357925
776694 594723
310173 302698
767555 239146
138547 224187
322091 670414
66841 169695
859947 348779
639741 196632
61524 251330
6858 971057
396620 478415
59580 10310
832031 755689
110012 122636
523176 744520
529513 278205
